{
  "type": "service_account",
  "project_id": "hyperlocal-11d39",
  "private_key_id": "02974aa7fc6bd438f4d6b8ba3aeca3b701dc64ea",
  "private_key": "-----BEGIN PRIVATE KEY-----\nMIIEvAIBADANBgkqhkiG9w0BAQEFAASCBKYwggSiAgEAAoIBAQDBdQJE4Dqiya6u\nDRlWWIcWGSGk/ACkbRcb+q7Z8gPwK39KPZUG2YXxae2L4aczeSiB6n3vIGhLc8AU\nV2FWen2rpXtaGfjBlwDOYPG6GDcCJKNcHQUZJqKbAft3KqgeJGYibPl5T4dQUuqm\nxgJ2f0/zzvmaIQ2sTKjjGkeXOomLutbc3Fzbi05SrAj8ZEBgGYAYzNjyjUWiFzY8\ncenaiRAS7fA1MU5ilkbv0ZxXlz7FMNMzfH+G2ml1EkPsws9Mj7YlAI3ZjXFMSfaU\nxoONF+zD8GNVEWu4oX2g6iVll07X5oaXBNunLoji3e0llY97AY/1kYjMyLDqHJjM\nbCrtCa/XAgMBAAECggEATvAFMICEPIdqAPg0VgDCgjhX+5+eTXl7+/0ympi/laDS\nDEOLiyN4HZU5CiJV3NF7v2Mk5s2E8QC2qDYtcCGEJOVdq1q8n5WTjSKOj/4wd+3m\nQIBQ473ZjMFmz+22crIsgLCRrTfPwW1L9SgHuj1hrNzQCV2iXCNdqGlBPAp1NG+d\nymHbYRoG1LV9lL+wb2rbLGkelgcXhDNltneLXrGkmMxymtnAReo6OOv/51qGPVQD\n5KMOVZVqHXx7vGhYL7CElMJzrNxStU80phKFoXg1otKaYIn3MyGozND43xI3ZjKc\nwcCHt4GrG6mIrjHgFSOuLobOZjL7T+GLWsOd3Zn0LQKBgQD/MHs9FfJ5PYxxnsXd\nJSa5GrNip4C6WnAQU6SN6HhcRTVbZOYyyhyg9yBWPIcm9O4kjAUZDl9NOvLi7wjy\nXYSsLL+tnsM27p1M18BAxmXs+qmatWm0oOBvkvf9VOlRNizpm6wZBWssGmoOwAUa\n2dWD8KLMlcOOy9JVy6wqdmsU1QKBgQDCElO7y5OJ/4cy04rzz/OPuqYteUQycq4h\n7GimvjPhfynXjMaDjuqZti0b2yh4WbWIqCzg4/rj/F7AOwH3i/gCfsjM+Z7wB30E\nmCbiV1x8coISr1K1UOg25z03uLr8j3Rhd4lIMifkxChfKHLny1Rik9wNz73NwaIR\nrd7w4Yi3+wKBgAUf0Bm16xyMI9nUOlzqdhCZfKiqfGdBkaaCR3eiB2iy6xNev1Cd\nxl1lGP0iUgRyPqX1OdT6+ObwHBh6fE+BmTxr2Z1+5qSfvgDhBDdIxJsxnV5B7lF2\nOYuEA/7OSbEbyWMXgSkvdqt4DFEngfK8FRGFL3+0Mi0X4q1eXaKsphHRAoGAE6CO\n31tDXJ1/KuDCGM5bL5oM3GR7RS7b9YpXOyXZUWDu9mHCYeO+TjVicoLDoQhRl7SK\ndWQZJ52KZ56QIF0DhB0WacSFEnlvZ1uL8zAqplteVE1u6+92zLauNkh0gL5xYroY\nJDkOV9CO1LDejhq+OgoCI1NzOq/umCMhfPMSRKkCgYA7hCMQZK22FfVWG0aiORgv\nX6E4fWODlhAY4kEx7ajJiRFwAGU413ok/EqI+qb/eP1N6VqRgdXK6q+dR3rc3Qpc\nON54vYK+N2fWtKMyl5ubWCtDQbzMI1A3SoOpEuBsLlm1cOaZiS9pViU6I+0pmuNd\nRf1Nuz9UFucXVsenEvZuhA==\n-----END PRIVATE KEY-----\n",
  "client_email": "firebase-adminsdk-w95au@hyperlocal-11d39.iam.gserviceaccount.com",
  "client_id": "116133152062559915158",
  "auth_uri": "https://accounts.google.com/o/oauth2/auth",
  "token_uri": "https://oauth2.googleapis.com/token",
  "auth_provider_x509_cert_url": "https://www.googleapis.com/oauth2/v1/certs",
  "client_x509_cert_url": "https://www.googleapis.com/robot/v1/metadata/x509/firebase-adminsdk-w95au%40hyperlocal-11d39.iam.gserviceaccount.com"
}
